Grape Quality and Environmental Predictors
…
The points do not fit along the line and are quite scattered illustrating a not a great fit.

library(broom)
tidy(model_gamma, conf.int = TRUE)

# A tibble: 23 × 7
   term                  estimate std.error statistic p.value conf.low conf.high
   <chr>                    <dbl>     <dbl>     <dbl>   <dbl>    <dbl>     <dbl>
 1 (Intercept)            1.53e+1   1.04e+1    1.47    0.141  -5.09e+0 35.7     
 2 sun_exposure_hours    -2.96e-3   2.31e-2   -0.128   0.898  -4.82e-2  0.0423  
 3 soil_moisture_percent -4.88e-4   4.14e-3   -0.118   0.906  -8.61e-3  0.00764 
 4 rainfall_mm            9.07e-5   5.44e-5    1.67    0.0956 -1.63e-5  0.000198
 5 acidity_ph             2.09e-2   2.30e-2    0.908   0.364  -2.39e-2  0.0656  
 6 harvest_date          -6.36e-4   5.29e-4   -1.20    0.230  -1.67e-3  0.000403
 7 cluster_weight_g      -6.52e-6   1.08e-4   -0.0602  0.952  -2.19e-4  0.000206
 8 berry_size_mm          2.45e-3   2.18e-3    1.12    0.261  -1.79e-3  0.00668 
 9 varietyChardonnay      2.18e-2   3.72e-2    0.585   0.559  -5.13e-2  0.0949  
10 varietyMerlot         -2.34e-2   3.77e-2   -0.623   0.534  -9.73e-2  0.0506  
# ℹ 13 more rows
…
